…
attendance_joined <- attendance %>%
  left_join(standings,
    by = c("year", "team_name", "team")
  )

attendance_joined
## # A tibble: 10,846 x 20
##    team  team_name  year  total   home   away  week weekly_attendan~  wins  loss
##    <chr> <chr>     <dbl>  <dbl>  <dbl>  <dbl> <dbl>            <dbl> <dbl> <dbl>
##  1 Ariz~ Cardinals  2000 893926 387475 506451     1            77434     3    13
##  2 Ariz~ Cardinals  2000 893926 387475 506451     2            66009     3    13
##  3 Ariz~ Cardinals  2000 893926 387475 506451     3               NA     3    13
##  4 Ariz~ Cardinals  2000 893926 387475 506451     4            71801     3    13
##  5 Ariz~ Cardinals  2000 893926 387475 506451     5            66985     3    13
##  6 Ariz~ Cardinals  2000 893926 387475 506451     6            44296     3    13
##  7 Ariz~ Cardinals  2000 893926 387475 506451     7            38293     3    13
##  8 Ariz~ Cardinals  2000 893926 387475 506451     8            62981     3    13
##  9 Ariz~ Cardinals  2000 893926 387475 506451     9            35286     3    13
## 10 Ariz~ Cardinals  2000 893926 387475 506451    10            52244     3    13
## # ... with 10,836 more rows, and 10 more variables: points_for <dbl>,
## #   points_against <dbl>, points_differential <dbl>, margin_of_victory <dbl>,
## #   strength_of_schedule <dbl>, simple_rating <dbl>, offensive_ranking <dbl>,
## #   defensive_ranking <dbl>, playoffs <chr>, sb_winner <chr>
…
<img src="{{< blogdown/postref >}}index_files/figure-html/unnamed-chunk-4-1.png" width="672" />

进行了简单的数据之后，我们下面进入建模环节。

建立模型

首先删除结果变量（weekly attendance）是NA的行，并选择想作为预测变量的列。

attendance_df <- attendance_joined %>% 
  filter(!is.na(weekly_attendance)) %>% 
  select(weekly_attendance, team_name, year, week, margin_of_victory, strength_of_schedule, playoffs)

attendance_df
## # A tibble: 10,208 x 7
##    weekly_attendance team_name  year  week margin_of_victory strength_of_schedu~
##                <dbl> <chr>     <dbl> <dbl>             <dbl>               <dbl>
##  1             77434 Cardinals  2000     1             -14.6                -0.7
##  2             66009 Cardinals  2000     2             -14.6                -0.7
##  3             71801 Cardinals  2000     4             -14.6                -0.7
##  4             66985 Cardinals  2000     5             -14.6                -0.7
##  5             44296 Cardinals  2000     6             -14.6                -0.7
##  6             38293 Cardinals  2000     7             -14.6                -0.7
##  7             62981 Cardinals  2000     8             -14.6                -0.7
##  8             35286 Cardinals  2000     9             -14.6                -0.7
##  9             52244 Cardinals  2000    10             -14.6                -0.7
## 10             64223 Cardinals  2000    11             -14.6                -0.7
## # ... with 10,198 more rows, and 1 more variable: playoffs <chr>
…
attendance_df <- attendance_df[1:1000,]

set.seed(123)
attendance_split <- attendance_df %>% 
  initial_split(strata = playoffs)

nfl_train <- training(attendance_split)
nfl_test <- testing(attendance_split)

attendance_split
## <Analysis/Assess/Total>
## <750/250/1000>
nfl_train
## # A tibble: 750 x 7
##    weekly_attendance team_name  year  week margin_of_victory strength_of_schedu~
##                <dbl> <chr>     <dbl> <dbl>             <dbl>               <dbl>
##  1             66985 Cardinals  2000     5             -14.6                -0.7
##  2             44296 Cardinals  2000     6             -14.6                -0.7
##  3             38293 Cardinals  2000     7             -14.6                -0.7
##  4             62981 Cardinals  2000     8             -14.6                -0.7
##  5             35286 Cardinals  2000     9             -14.6                -0.7
##  6             64223 Cardinals  2000    11             -14.6                -0.7
##  7             65356 Cardinals  2000    12             -14.6                -0.7
##  8             42094 Cardinals  2000    13             -14.6                -0.7
##  9             50289 Cardinals  2000    14             -14.6                -0.7
## 10             53472 Cardinals  2000    15             -14.6                -0.7
## # ... with 740 more rows, and 1 more variable: playoffs <chr>
nfl_test
## # A tibble: 250 x 7
##    weekly_attendance team_name  year  week margin_of_victory strength_of_schedu~
##                <dbl> <chr>     <dbl> <dbl>             <dbl>               <dbl>
##  1             77434 Cardinals  2000     1             -14.6                -0.7
##  2             66009 Cardinals  2000     2             -14.6                -0.7
##  3             71801 Cardinals  2000     4             -14.6                -0.7
##  4             52244 Cardinals  2000    10             -14.6                -0.7
##  5             37452 Cardinals  2000    16             -14.6                -0.7
##  6             54626 Falcons    2000     1             -10.1                 1.5
##  7             75466 Falcons    2000     2             -10.1                 1.5
##  8             67447 Falcons    2000    12             -10.1                 1.5
##  9             55049 Ravens     2000     1              10.5                -2.5
## 10             69416 Ravens     2000    12              10.5                -2.5
## # ... with 240 more rows, and 1 more variable: playoffs <chr>
…
评价模型

lm_test_res <- predict(lm_fit, new_data = nfl_test)

lm_test_res <- nfl_test %>% select(weekly_attendance) %>% 
  bind_cols(predict(lm_fit, new_data = nfl_test)) %>% 
  bind_cols(predict(lm_fit, new_data = nfl_test, type = "pred_int"))
lm_test_res
## # A tibble: 250 x 4
##    weekly_attendance  .pred .pred_lower .pred_upper
##                <dbl>  <dbl>       <dbl>       <dbl>
##  1             77434 52781.      35463.      70100.
##  2             66009 52753.      35443.      70063.
##  3             71801 52697.      35401.      69993.
##  4             52244 52529.      35252.      69806.
##  5             37452 52361.      35068.      69653.
##  6             54626 57755.      40418.      75092.
##  7             75466 57727.      40397.      75057.
##  8             67447 57446.      40134.      74759.
##  9             55049 67121.      49753.      84490.
## 10             69416 66813.      49456.      84169.
## # ... with 240 more rows
…
# 下面这段合并结果的代码可以用于很多模型，值得学习
results_train <- lm_fit %>%
  predict(new_data = nfl_train) %>%
  mutate(
    truth = nfl_train$weekly_attendance,
    model = "lm"
  ) %>%
  bind_rows(rf_fit %>%
    predict(new_data = nfl_train) %>%
    mutate(
      truth = nfl_train$weekly_attendance,
      model = "rf"
    ))
results_train
## # A tibble: 1,500 x 3
##     .pred truth model
##     <dbl> <dbl> <chr>
##  1 52669. 66985 lm   
##  2 52641. 44296 lm   
##  3 52613. 38293 lm   
##  4 52585. 62981 lm   
##  5 52557. 35286 lm   
##  6 52501. 64223 lm   
##  7 52473. 65356 lm   
##  8 52445. 42094 lm   
##  9 52417. 50289 lm   
## 10 52389. 53472 lm   
## # ... with 1,490 more rows
results_test <- lm_fit %>% 
  predict(new_data = nfl_test) %>% 
  mutate(truth = nfl_test$weekly_attendance, 
         model = "lm"
         ) %>% 
  bind_rows(rf_fit %>% 
              predict(new_data = nfl_test
                      )
            %>% 
              mutate(truth = nfl_test$weekly_attendance,
                     model = "rf"
                     )
            )
results_test
## # A tibble: 500 x 3
##     .pred truth model
##     <dbl> <dbl> <chr>
##  1 52781. 77434 lm   
##  2 52753. 66009 lm   
##  3 52697. 71801 lm   
##  4 52529. 52244 lm   
##  5 52361. 37452 lm   
##  6 57755. 54626 lm   
##  7 57727. 75466 lm   
##  8 57446. 67447 lm   
##  9 67121. 55049 lm   
## 10 66813. 69416 lm   
## # ... with 490 more rows
…
nfl_folds$splits[[1]] %>% analysis()
## # A tibble: 674 x 7
##    weekly_attendance team_name  year  week margin_of_victory strength_of_schedu~
##                <dbl> <chr>     <dbl> <dbl>             <dbl>               <dbl>
##  1             66985 Cardinals  2000     5             -14.6                -0.7
##  2             44296 Cardinals  2000     6             -14.6                -0.7
##  3             38293 Cardinals  2000     7             -14.6                -0.7
##  4             62981 Cardinals  2000     8             -14.6                -0.7
##  5             35286 Cardinals  2000     9             -14.6                -0.7
##  6             64223 Cardinals  2000    11             -14.6                -0.7
##  7             65356 Cardinals  2000    12             -14.6                -0.7
##  8             42094 Cardinals  2000    13             -14.6                -0.7
##  9             50289 Cardinals  2000    14             -14.6                -0.7
## 10             53472 Cardinals  2000    15             -14.6                -0.7
## # ... with 664 more rows, and 1 more variable: playoffs <chr>
…
collect_metrics(rf_res)
## # A tibble: 2 x 6
##   .metric .estimator      mean     n  std_err .config             
##   <chr>   <chr>          <dbl> <int>    <dbl> <chr>               
## 1 rmse    standard   9196.        10 382.     Preprocessor1_Model1
## 2 rsq     standard      0.0830    10   0.0209 Preprocessor1_Model1

assess_res <- collect_predictions(rf_res)
assess_res
## # A tibble: 750 x 5
##    id      .pred  .row weekly_attendance .config             
##    <chr>   <dbl> <int>             <dbl> <chr>               
##  1 Fold01 61472.    15             50947 Preprocessor1_Model1
##  2 Fold01 60956.    19             70097 Preprocessor1_Model1
##  3 Fold01 69724.    29             72351 Preprocessor1_Model1
##  4 Fold01 69750.    32             60292 Preprocessor1_Model1
##  5 Fold01 67449.    44             66048 Preprocessor1_Model1
##  6 Fold01 66535.    57             77354 Preprocessor1_Model1
##  7 Fold01 63206.    64             63406 Preprocessor1_Model1
##  8 Fold01 66682.    79             68498 Preprocessor1_Model1
##  9 Fold01 66059.    90             63554 Preprocessor1_Model1
## 10 Fold01 65796.    94             63467 Preprocessor1_Model1
## # ... with 740 more rows
…
