…
hotel_stays
## # A tibble: 75,166 x 29
##    hotel      lead_time arrival_date_year arrival_date_mon~ arrival_date_week_n~
##    <chr>          <dbl>             <dbl> <chr>                            <dbl>
##  1 Resort Ho~       342              2015 July                                27
##  2 Resort Ho~       737              2015 July                                27
##  3 Resort Ho~         7              2015 July                                27
##  4 Resort Ho~        13              2015 July                                27
##  5 Resort Ho~        14              2015 July                                27
##  6 Resort Ho~        14              2015 July                                27
##  7 Resort Ho~         0              2015 July                                27
##  8 Resort Ho~         9              2015 July                                27
##  9 Resort Ho~        35              2015 July                                27
## 10 Resort Ho~        68              2015 July                                27
## # ... with 75,156 more rows, and 24 more variables:
## #   arrival_date_day_of_month <dbl>, stays_in_weekend_nights <dbl>,
## #   stays_in_week_nights <dbl>, adults <dbl>, children <chr>, meal <chr>,
## #   country <chr>, market_segment <chr>, distribution_channel <chr>,
## #   is_repeated_guest <dbl>, previous_cancellations <dbl>,
## #   previous_bookings_not_canceled <dbl>, reserved_room_type <chr>,
## #   assigned_room_type <chr>, booking_changes <dbl>, deposit_type <chr>,
## #   agent <chr>, company <chr>, days_in_waiting_list <dbl>,
## #   customer_type <chr>, adr <dbl>, required_car_parking_spaces <chr>,
…
评价模型

set.seed(1234)

# 模特卡洛法交叉验证
validation_split <- mc_cv(data = train_proc, prop = 0.9, strata = children)
validation_split
## # Monte Carlo cross-validation (0.9/0.1) with 25 resamples  using stratification 
## # A tibble: 25 x 2
##    splits           id        
##    <list>           <chr>     
##  1 <split [200/24]> Resample01
##  2 <split [200/24]> Resample02
##  3 <split [200/24]> Resample03
##  4 <split [200/24]> Resample04
##  5 <split [200/24]> Resample05
##  6 <split [200/24]> Resample06
##  7 <split [200/24]> Resample07
##  8 <split [200/24]> Resample08
##  9 <split [200/24]> Resample09
## 10 <split [200/24]> Resample10
## # ... with 15 more rows

validation_split$splits[[1]] %>% analysis() %>% dim()
## [1] 200  12
validation_split$splits[[1]] %>% assessment()
## # A tibble: 24 x 12
##       adr  adults total_of_special_~ stays_in_week_n~ stays_in_weekend~ children
##     <dbl>   <dbl>              <dbl>            <dbl>             <dbl> <fct>   
##  1  1.03  -0.0620              0               -0.226             0.649 children
##  2  0.842 -2.84               -0.985           -1.17             -0.295 children
##  3  1.94  -0.0620             -0.985           -0.699             0.649 children
##  4 -1.04  -0.0620              0                0.247             0.649 children
##  5 -0.376 -0.0620              0.985           -0.226            -0.295 children
##  6 -0.193 -0.0620              0.985            0.720             0.649 children
##  7 -0.347 -0.0620              0.985           -0.226             0.649 children
##  8  1.38  -0.0620             -0.985            1.19              0.649 children
##  9  0.113 -0.0620             -0.985           -0.226             0.649 children
## 10 -0.453 -0.0620              1.97            -0.699            -1.24  children
## # ... with 14 more rows, and 6 more variables: arrival_date_month_August <dbl>,
## #   arrival_date_month_July <dbl>, arrival_date_month_September <dbl>,
## #   meal_FB <dbl>, meal_HB <dbl>, required_car_parking_spaces_parking <dbl>

knn的交叉验证

knn_res <- fit_resamples(
  knn_spec,
  children ~ ., 
  validation_split,
  control = control_resamples(save_pred = T)
)

knn_res
## # Resampling results
## # Monte Carlo cross-validation (0.9/0.1) with 25 resamples  using stratification 
## # A tibble: 25 x 5
##    splits           id         .metrics         .notes          .predictions    
##    <list>           <chr>      <list>           <list>          <list>          
##  1 <split [200/24]> Resample01 <tibble [2 x 4]> <tibble [0 x 1~ <tibble [24 x 6~
##  2 <split [200/24]> Resample02 <tibble [2 x 4]> <tibble [0 x 1~ <tibble [24 x 6~
##  3 <split [200/24]> Resample03 <tibble [2 x 4]> <tibble [0 x 1~ <tibble [24 x 6~
##  4 <split [200/24]> Resample04 <tibble [2 x 4]> <tibble [0 x 1~ <tibble [24 x 6~
##  5 <split [200/24]> Resample05 <tibble [2 x 4]> <tibble [0 x 1~ <tibble [24 x 6~
##  6 <split [200/24]> Resample06 <tibble [2 x 4]> <tibble [0 x 1~ <tibble [24 x 6~
##  7 <split [200/24]> Resample07 <tibble [2 x 4]> <tibble [0 x 1~ <tibble [24 x 6~
##  8 <split [200/24]> Resample08 <tibble [2 x 4]> <tibble [0 x 1~ <tibble [24 x 6~
##  9 <split [200/24]> Resample09 <tibble [2 x 4]> <tibble [0 x 1~ <tibble [24 x 6~
## 10 <split [200/24]> Resample10 <tibble [2 x 4]> <tibble [0 x 1~ <tibble [24 x 6~
## # ... with 15 more rows
…
查看每一折里面的结果

knn_res %>% collect_predictions()
## # A tibble: 600 x 7
##    id        .pred_children .pred_none  .row .pred_class children .config       
##    <chr>              <dbl>      <dbl> <int> <fct>       <fct>    <chr>         
##  1 Resample~         1           0        15 children    children Preprocessor1~
##  2 Resample~         0.237       0.763    29 none        children Preprocessor1~
##  3 Resample~         0.0251      0.975    30 none        children Preprocessor1~
##  4 Resample~         0.738       0.262    33 children    children Preprocessor1~
##  5 Resample~         0.284       0.716    34 none        children Preprocessor1~
##  6 Resample~         0.180       0.820    36 none        children Preprocessor1~
##  7 Resample~         0.716       0.284    39 children    children Preprocessor1~
##  8 Resample~         0.763       0.237    58 children    children Preprocessor1~
##  9 Resample~         0.341       0.659    74 none        children Preprocessor1~
## 10 Resample~         0.439       0.561    83 none        children Preprocessor1~
## # ... with 590 more rows
…
